United States,Virginia,Staunton/Waynesboro/Harrisonburg,24486,Shenandoah Valley Regional Airport,KSHD,Main
United States,Virginia,"Washington, DC/Arlington County",22202,Ronald Reagan Washington National Airport,KDCA,Main
United States,Virginia,Washington  DC/Dulles/Chantilly,20166,Washington Dulles International Airport,KIAD,Main
